{
  "id": "env:GATEWAY_ID",
  "host": "gateway",
  "localCache": {
    "type": "ENABLED",
    "maxLineSize": 32,
    "ttlSeconds": 86400,
    "gcIntervalSeconds": 5,
    "evictIntervalSeconds": 5
  },
  "membership": {
    "type": "ZOOKEEPER"
  },
  "history": {
    "maxSize": 512
  },
  "proxy": {
    "allocationAttempts": 3,
    "allocationTimeoutSeconds": 600,
    "inactivityTimeoutSeconds": 30,
    "healthCheckTimeoutSeconds": 20
  },
  "zookeeper": {
    "endpoints": [
      "zk:2181"
    ],
    "timeoutSeconds": 15
  },
  "scheduler": {
    "mesos": {
      "masters": [
        "http://master:5050"
      ],
      "offerRefuseSeconds": 1
    }
  }
}